Listing 9.3. Rozwiązanie ćwiczenia 9.1
$(function(){
    $('span.fiszka').each(function() {
        $(this).parent().before('<p/>').prev().addClass('fiszka').html($(this).html());
        $(this).remove();
    });
});